dplyr for single table | hoas' blog | One Stupid Boy
…
library(pacman)
p_load(dplyr)

by_cyl <- mtcars %>% group_by(cyl)
by_cyl %>% arrange(desc(wt))
#> # A tibble: 32 x 11
#> # Groups:   cyl [3]
#>      mpg   cyl  disp    hp  drat    wt  qsec    vs    am  gear  carb
#>    <dbl> <dbl> <dbl> <dbl> <dbl> <dbl> <dbl> <dbl> <dbl> <dbl> <dbl>
#>  1  10.4     8  460    215  3     5.42  17.8     0     0     3     4
#>  2  14.7     8  440    230  3.23  5.34  17.4     0     0     3     4
#>  3  10.4     8  472    205  2.93  5.25  18.0     0     0     3     4
#>  4  16.4     8  276.   180  3.07  4.07  17.4     0     0     3     3
#>  5  19.2     8  400    175  3.08  3.84  17.0     0     0     3     2
#>  6  13.3     8  350    245  3.73  3.84  15.4     0     0     3     4
#>  7  15.2     8  276.   180  3.07  3.78  18       0     0     3     3
#>  8  17.3     8  276.   180  3.07  3.73  17.6     0     0     3     3
#>  9  14.3     8  360    245  3.21  3.57  15.8     0     0     3     4
#> 10  15       8  301    335  3.54  3.57  14.6     0     1     5     8
#> # ... with 22 more rows

by_cyl %>% arrange(desc(wt), .by_group = TRUE)
#> # A tibble: 32 x 11
#> # Groups:   cyl [3]
#>      mpg   cyl  disp    hp  drat    wt  qsec    vs    am  gear  carb
#>    <dbl> <dbl> <dbl> <dbl> <dbl> <dbl> <dbl> <dbl> <dbl> <dbl> <dbl>
#>  1  24.4     4 147.     62  3.69  3.19  20       1     0     4     2
#>  2  22.8     4 141.     95  3.92  3.15  22.9     1     0     4     2
#>  3  21.4     4 121     109  4.11  2.78  18.6     1     1     4     2
#>  4  21.5     4 120.     97  3.7   2.46  20.0     1     0     3     1
#>  5  22.8     4 108      93  3.85  2.32  18.6     1     1     4     1
#>  6  32.4     4  78.7    66  4.08  2.2   19.5     1     1     4     1
#>  7  26       4 120.     91  4.43  2.14  16.7     0     1     5     2
#>  8  27.3     4  79      66  4.08  1.94  18.9     1     1     4     1
#>  9  33.9     4  71.1    65  4.22  1.84  19.9     1     1     4     1
#> 10  30.4     4  75.7    52  4.93  1.62  18.5     1     1     4     2
#> # ... with 22 more rows
…
iris <- as_tibble(iris)
select(iris, Species, everything())
#> # A tibble: 150 x 5
#>    Species Sepal.Length Sepal.Width Petal.Length Petal.Width
#>    <fct>          <dbl>       <dbl>        <dbl>       <dbl>
#>  1 setosa           5.1         3.5          1.4         0.2
#>  2 setosa           4.9         3            1.4         0.2
#>  3 setosa           4.7         3.2          1.3         0.2
#>  4 setosa           4.6         3.1          1.5         0.2
#>  5 setosa           5           3.6          1.4         0.2
#>  6 setosa           5.4         3.9          1.7         0.4
#>  7 setosa           4.6         3.4          1.4         0.3
#>  8 setosa           5           3.4          1.5         0.2
#>  9 setosa           4.4         2.9          1.4         0.2
#> 10 setosa           4.9         3.1          1.5         0.1
#> # ... with 140 more rows

select(iris, -Sepal.Length, Sepal.Length)
#> # A tibble: 150 x 5
#>    Sepal.Width Petal.Length Petal.Width Species Sepal.Length
#>          <dbl>        <dbl>       <dbl> <fct>          <dbl>
#>  1         3.5          1.4         0.2 setosa           5.1
#>  2         3            1.4         0.2 setosa           4.9
#>  3         3.2          1.3         0.2 setosa           4.7
#>  4         3.1          1.5         0.2 setosa           4.6
#>  5         3.6          1.4         0.2 setosa           5  
#>  6         3.9          1.7         0.4 setosa           5.4
#>  7         3.4          1.4         0.3 setosa           4.6
#>  8         3.4          1.5         0.2 setosa           5  
#>  9         2.9          1.4         0.2 setosa           4.4
#> 10         3.1          1.5         0.1 setosa           4.9
#> # ... with 140 more rows
…
starwars %>% group_by(gender) %>% select(group_cols())
#> # A tibble: 87 x 1
#> # Groups:   gender [5]
#>    gender
#>    <chr> 
#>  1 male  
#>  2 <NA>  
#>  3 <NA>  
#>  4 male  
#>  5 female
#>  6 male  
#>  7 female
#>  8 <NA>  
#>  9 male  
#> 10 male  
#> # ... with 77 more rows

gdf <- iris %>% group_by(Species)
gdf
#> # A tibble: 150 x 5
#> # Groups:   Species [3]
#>    Sepal.Length Sepal.Width Petal.Length Petal.Width Species
#>           <dbl>       <dbl>        <dbl>       <dbl> <fct>  
#>  1          5.1         3.5          1.4         0.2 setosa 
#>  2          4.9         3            1.4         0.2 setosa 
#>  3          4.7         3.2          1.3         0.2 setosa 
#>  4          4.6         3.1          1.5         0.2 setosa 
#>  5          5           3.6          1.4         0.2 setosa 
#>  6          5.4         3.9          1.7         0.4 setosa 
#>  7          4.6         3.4          1.4         0.3 setosa 
#>  8          5           3.4          1.5         0.2 setosa 
#>  9          4.4         2.9          1.4         0.2 setosa 
#> 10          4.9         3.1          1.5         0.1 setosa 
#> # ... with 140 more rows
gdf %>% mutate_at(vars(-group_cols()), `/`, 100)
#> # A tibble: 150 x 5
#> # Groups:   Species [3]
#>    Sepal.Length Sepal.Width Petal.Length Petal.Width Species
#>           <dbl>       <dbl>        <dbl>       <dbl> <fct>  
#>  1        0.051      0.035        0.0140       0.002 setosa 
#>  2        0.049      0.03         0.0140       0.002 setosa 
#>  3        0.047      0.032        0.013        0.002 setosa 
#>  4        0.046      0.031        0.015        0.002 setosa 
#>  5        0.05       0.036        0.0140       0.002 setosa 
#>  6        0.054      0.039        0.017        0.004 setosa 
#>  7        0.046      0.034        0.0140       0.003 setosa 
#>  8        0.05       0.034        0.015        0.002 setosa 
#>  9        0.044      0.0290       0.0140       0.002 setosa 
#> 10        0.049      0.031        0.015        0.001 setosa 
#> # ... with 140 more rows
…
starwars %>%
  select(name, eye_color) %>%
  mutate(eye_color = na_if(eye_color, "unknown"))
#> # A tibble: 87 x 2
#>    name               eye_color
#>    <chr>              <chr>    
#>  1 Luke Skywalker     blue     
#>  2 C-3PO              yellow   
#>  3 R2-D2              red      
#>  4 Darth Vader        yellow   
#>  5 Leia Organa        brown    
#>  6 Owen Lars          blue     
#>  7 Beru Whitesun lars blue     
#>  8 R5-D4              red      
#>  9 Biggs Darklighter  brown    
#> 10 Obi-Wan Kenobi     blue-gray
#> # ... with 77 more rows

starwars %>%
  mutate_if(is.character, list(~na_if(., "unknown")))
#> # A tibble: 87 x 13
#>    name  height  mass hair_color skin_color eye_color birth_year gender
#>    <chr>  <int> <dbl> <chr>      <chr>      <chr>          <dbl> <chr> 
#>  1 Luke~    172    77 blond      fair       blue            19   male  
#>  2 C-3PO    167    75 <NA>       gold       yellow         112   <NA>  
#>  3 R2-D2     96    32 <NA>       white, bl~ red             33   <NA>  
#>  4 Dart~    202   136 none       white      yellow          41.9 male  
#>  5 Leia~    150    49 brown      light      brown           19   female
#>  6 Owen~    178   120 brown, gr~ light      blue            52   male  
#>  7 Beru~    165    75 brown      light      blue            47   female
#>  8 R5-D4     97    32 <NA>       white, red red             NA   <NA>  
#>  9 Bigg~    183    84 black      light      brown           24   male  
#> 10 Obi-~    182    77 auburn, w~ fair       blue-gray       57   male  
#> # ... with 77 more rows, and 5 more variables: homeworld <chr>,
#> #   species <chr>, films <list>, vehicles <list>, starships <list>
…
# The list can contain purrr-style formulas:
iris %>% mutate_if(is.numeric, list(~scale2(.), ~log(.)))
#> # A tibble: 150 x 13
#>    Sepal.Length Sepal.Width Petal.Length Petal.Width Species Sepal.Length_sc…
#>           <dbl>       <dbl>        <dbl>       <dbl> <fct>              <dbl>
#>  1          5.1         3.5          1.4         0.2 setosa            -0.898
#>  2          4.9         3            1.4         0.2 setosa            -1.14 
#>  3          4.7         3.2          1.3         0.2 setosa            -1.38 
#>  4          4.6         3.1          1.5         0.2 setosa            -1.50 
#>  5          5           3.6          1.4         0.2 setosa            -1.02 
#>  6          5.4         3.9          1.7         0.4 setosa            -0.535
#>  7          4.6         3.4          1.4         0.3 setosa            -1.50 
#>  8          5           3.4          1.5         0.2 setosa            -1.02 
#>  9          4.4         2.9          1.4         0.2 setosa            -1.74 
#> 10          4.9         3.1          1.5         0.1 setosa            -1.14 
#> # … with 140 more rows, and 7 more variables: Sepal.Width_scale2 <dbl>,
#> #   Petal.Length_scale2 <dbl>, Petal.Width_scale2 <dbl>,
#> #   Sepal.Length_log <dbl>, Sepal.Width_log <dbl>, Petal.Length_log <dbl>,
#> #   Petal.Width_log <dbl>
…
# count() is a short-hand for group_by() + tally()
mtcars %>% count(cyl)
#> # A tibble: 3 x 2
#>     cyl     n
#>   <dbl> <int>
#> 1     4    11
#> 2     6     7
#> 3     8    14

# add_tally() is short-hand for mutate()
mtcars %>% add_tally()
#> # A tibble: 32 x 12
#>      mpg   cyl  disp    hp  drat    wt  qsec    vs    am  gear  carb     n
#>    <dbl> <dbl> <dbl> <dbl> <dbl> <dbl> <dbl> <dbl> <dbl> <dbl> <dbl> <int>
#>  1  21       6  160    110  3.9   2.62  16.5     0     1     4     4    32
#>  2  21       6  160    110  3.9   2.88  17.0     0     1     4     4    32
#>  3  22.8     4  108     93  3.85  2.32  18.6     1     1     4     1    32
#>  4  21.4     6  258    110  3.08  3.22  19.4     1     0     3     1    32
#>  5  18.7     8  360    175  3.15  3.44  17.0     0     0     3     2    32
#>  6  18.1     6  225    105  2.76  3.46  20.2     1     0     3     1    32
#>  7  14.3     8  360    245  3.21  3.57  15.8     0     0     3     4    32
#>  8  24.4     4  147.    62  3.69  3.19  20       1     0     4     2    32
#>  9  22.8     4  141.    95  3.92  3.15  22.9     1     0     4     2    32
#> 10  19.2     6  168.   123  3.92  3.44  18.3     1     0     4     4    32
#> # ... with 22 more rows

# add_count() is a short-hand for group_by() + add_tally()
mtcars %>% add_count(cyl)
#> # A tibble: 32 x 12
#>      mpg   cyl  disp    hp  drat    wt  qsec    vs    am  gear  carb     n
#>    <dbl> <dbl> <dbl> <dbl> <dbl> <dbl> <dbl> <dbl> <dbl> <dbl> <dbl> <int>
#>  1  21       6  160    110  3.9   2.62  16.5     0     1     4     4     7
#>  2  21       6  160    110  3.9   2.88  17.0     0     1     4     4     7
#>  3  22.8     4  108     93  3.85  2.32  18.6     1     1     4     1    11
#>  4  21.4     6  258    110  3.08  3.22  19.4     1     0     3     1     7
#>  5  18.7     8  360    175  3.15  3.44  17.0     0     0     3     2    14
#>  6  18.1     6  225    105  2.76  3.46  20.2     1     0     3     1     7
#>  7  14.3     8  360    245  3.21  3.57  15.8     0     0     3     4    14
#>  8  24.4     4  147.    62  3.69  3.19  20       1     0     4     2    11
#>  9  22.8     4  141.    95  3.92  3.15  22.9     1     0     4     2    11
#> 10  19.2     6  168.   123  3.92  3.44  18.3     1     0     4     4     7
#> # ... with 22 more rows
…
