R语言自然语言处理：中文分词 | hoas' blog | One Stupid Boy
…
tag_worker <- worker(type = "tag")
cn <- "林志炫拥有一副为音乐而生的身体。他的上半身几乎每一个器官都能共鸣，上至额窦，下至小腹。闲暇时，这位土木工程专业出身的理工男热衷于与医生讨论“我的身体还有哪里能共鸣”。多年的训练让他对发声部位的操控越发娴熟，在即将举行的“One Take 2.0”巡回演唱会上，他按照器官共鸣顺序排出歌单，希望把《我是歌手》和《歌手》两季难度最高的歌曲集中到两小时一次唱完。这需要缜密规划，才能在唱完最后一个音符时，每个部位刚好使用到极限。任何形式的“加唱”，都会影响演出效果。
...
苦行僧一般的生活，他甘之如饴，也会将其延续下去，直到命运收回他的嗓子。命运什么时候动手呢？考虑到他已不是第一次撞见幸运，他乐观地想，也许明天，也许永远不会。"
tagging(cn, tag_worker) %>%
  enframe() %>%
  dplyr::filter(name == "n") -> tag_names

tag_names %>%
  count(value) %>% # 对名词进行计数
  arrange(desc(n)) %>% # 降序排列
  wordcloud2(size = 0.8, fontFamily = "宋体", color = "random-light", backgroundColor = "black")
#> # A tibble: 271 x 2
#>    value     n
#>    <chr> <int>
#>  1 音乐     25
#>  2 现场     22
#>  3 歌手     16
#>  4 声音     10
#>  5 专辑     10
#>  6 歌曲      8
#>  7 人        8
#>  8 身体      8
#>  9 时        8
#> 10 唱歌      6
#> # ... with 261 more rows
…
